Id,SalePrice
1461,130000.0
1462,157900.0
1463,177000.0
1464,185750.0
1465,190000.0
1466,184278.57142857142
1467,168000.0
1468,173000.0
1469,184100.0
1470,129000.0
1471,197000.0
1472,92000.0
1473,97000.0
1474,155000.0
1475,139400.0
1476,370878.0
1477,255500.0
1478,315000.0
1479,256300.0
1480,466500.0
1481,312500.0
1482,202900.0
1483,177000.0
1484,179600.0
1485,177500.0
1486,200000.0
1487,309000.0
1488,244600.0
1489,208300.0
1490,208300.0
1491,192500.0
1492,89500.0
1493,180000.0
1494,290000.0
1495,305000.0
1496,222000.0
1497,184000.0
1498,155000.0
1499,155000.0
1500,164500.0
1501,172500.0
1502,159895.0
1503,295493.0
1504,230000.0
1505,220000.0
1506,185000.0
1507,217000.0
1508,190000.0
1509,162900.0
1510,153500.0
1511,154000.0
1512,169500.0
1513,138000.0
1514,165000.0
1515,197500.0
1516,156500.0
1517,158500.0
1518,127500.0
1519,220000.0
1520,140000.0
1521,145000.0
1522,161500.0
1523,112000.0
1524,123500.0
1525,132500.0
1526,119750.0
1527,106250.0
1528,128000.0
1529,148000.0
1530,167000.0
1531,124900.0
1532,108000.0
1533,137900.0
1534,118858.0
1535,160000.0
1536,112000.0
1537,82000.0
1538,168000.0
1539,228500.0
1540,117500.0
1541,146000.0
1542,143000.0
1543,213490.0
1544,87000.0
1545,104900.0
1546,128000.0
1547,138000.0
1548,128000.0
1549,112000.0
1550,136500.0
1551,119750.0
1552,137450.0
1553,145900.0
1554,114504.0
1555,165000.0
1556,93000.0
1557,121500.0
1558,91500.0
1559,118500.0
1560,140000.0
1561,145000.0
1562,127000.0
1563,121500.0
1564,159895.0
1565,154000.0
1566,222000.0
1567,81000.0
1568,216500.0
1569,143000.0
1570,139450.0
1571,137500.0
1572,145000.0
1573,232000.0
1574,115000.0
1575,215000.0
1576,223500.0
1577,203000.0
1578,143000.0
1579,145000.0
1580,190000.0
1581,145000.0
1582,125000.0
1583,305900.0
1584,239000.0
1585,141000.0
1586,82500.0
1587,107400.0
1588,149900.0
1589,108000.0
1590,127500.0
1591,99500.0
1592,125000.0
1593,114500.0
1594,142953.0
1595,129000.0
1596,234000.0
1597,180000.0
1598,190000.0
1599,189000.0
1600,189000.0
1601,75000.0
1602,109000.0
1603,82000.0
1604,275000.0
1605,248000.0
1606,169990.0
1607,171000.0
1608,220000.0
1609,198900.0
1610,166000.0
1611,142125.0
1612,172785.0
1613,165000.0
1614,130500.0
1615,88000.0
1616,83500.0
1617,88000.0
1618,125000.0
1619,138800.0
1620,168000.0
1621,142125.0
1622,145000.0
1623,289000.0
1624,215000.0
1625,129000.0
1626,169500.0
1627,184000.0
1628,284000.0
1629,176500.0
1630,320000.0
1631,219500.0
1632,239000.0
1633,168500.0
1634,181000.0
1635,178000.0
1636,159500.0
1637,187500.0
1638,205000.0
1639,180500.0
1640,250000.0
1641,177000.0
1642,225000.0
1643,230000.0
1644,228500.0
1645,185000.0
1646,159500.0
1647,167000.0
1648,141500.0
1649,138800.0
1650,120500.0
1651,123000.0
1652,91500.0
1653,94500.0
1654,158000.0
1655,157000.0
1656,150000.0
1657,157000.0
1658,155835.0
1659,140000.0
1660,151500.0
1661,437154.0
1662,367294.0
1663,378500.0
1664,466500.0
1665,318000.0
1666,324000.0
1667,350000.0
1668,318000.0
1669,307000.0
1670,325000.0
1671,260400.0
1672,501837.0
1673,302000.0
1674,255500.0
1675,181900.0
1676,185850.0
1677,220000.0
1678,466500.0
1679,385000.0
1680,318061.0
1681,266000.0
1682,306000.0
1683,179600.0
1684,172785.0
1685,174000.0
1686,178000.0
1687,168500.0
1688,189000.0
1689,193500.0
1690,184000.0
1691,178400.0
1692,260000.0
1693,167500.0
1694,178000.0
1695,165400.0
1696,265000.0
1697,168500.0
1698,336000.0
1699,315750.0
1700,248000.0
1701,263435.0
1702,255500.0
1703,254000.0
1704,297000.0
1705,229456.0
1706,466500.0
1707,227000.0
1708,224000.0
1709,271000.0
1710,229456.0
1711,255000.0
1712,235000.0
1713,260000.0
1714,220000.0
1715,205000.0
1716,187100.0
1717,178000.0
1718,141000.0
1719,201800.0
1720,252000.0
1721,179600.0
1722,137500.0
1723,155000.0
1724,205000.0
1725,236000.0
1726,189000.0
1727,176000.0
1728,185000.0
1729,158900.0
1730,167000.0
1731,121000.0
1732,129700.0
1733,118500.0
1734,125000.0
1735,135000.0
1736,118400.0
1737,350000.0
1738,224500.0
1739,265979.0
1740,200000.0
1741,190000.0
1742,172500.0
1743,172500.0
1744,301500.0
1745,232000.0
1746,245500.0
1747,207500.0
1748,205000.0
1749,158900.0
1750,143000.0
1751,230000.0
1752,123000.0
1753,141000.0
1754,196500.0
1755,172000.0
1756,123000.0
1757,116000.0
1758,150000.0
1759,166000.0
1760,160000.0
1761,143500.0
1762,180000.0
1763,171000.0
1764,119000.0
1765,167500.0
1766,171000.0
1767,215000.0
1768,145000.0
1769,168000.0
1770,142500.0
1771,134500.0
1772,141000.0
1773,137500.0
1774,136905.0
1775,137000.0
1776,122000.0
1777,115000.0
1778,133900.0
1779,120000.0
1780,175500.0
1781,137000.0
1782,92000.0
1783,133900.0
1784,105000.0
1785,115000.0
1786,136000.0
1787,164000.0
1788,60000.0
1789,105500.0
1790,82500.0
1791,189000.0
1792,155000.0
1793,148000.0
1794,142500.0
1795,139000.0
1796,137500.0
1797,118500.0
1798,127000.0
1799,115000.0
1800,132500.0
1801,134432.0
1802,143750.0
1803,144000.0
1804,144000.0
1805,140000.0
1806,123500.0
1807,130000.0
1808,118000.0
1809,127000.0
1810,141000.0
1811,107400.0
1812,106500.0
1813,120000.0
1814,86000.0
1815,62383.0
1816,92000.0
1817,117000.0
1818,135900.0
1819,119000.0
1820,80000.0
1821,120000.0
1822,149000.0
1823,55993.0
1824,137450.0
1825,145000.0
1826,103600.0
1827,98600.0
1828,137000.0
1829,109000.0
1830,135000.0
1831,159500.0
1832,107500.0
1833,137900.0
1834,128000.0
1835,133900.0
1836,130000.0
1837,100000.0
1838,130000.0
1839,86000.0
1840,179000.0
1841,147000.0
1842,85000.0
1843,139000.0
1844,137500.0
1845,139000.0
1846,154000.0
1847,160000.0
1848,61000.0
1849,120000.0
1850,123000.0
1851,165000.0
1852,124000.0
1853,138500.0
1854,179665.0
1855,165500.0
1856,220000.0
1857,177000.0
1858,142953.0
1859,118964.0
1860,153000.0
1861,118964.0
1862,284000.0
1863,274300.0
1864,274300.0
1865,319900.0
1866,320000.0
1867,244600.0
1868,306000.0
1869,194500.0
1870,244600.0
1871,255500.0
1872,174000.0
1873,235000.0
1874,145000.0
1875,210000.0
1876,193000.0
1877,214000.0
1878,210000.0
1879,135000.0
1880,134000.0
1881,246578.0
1882,255900.0
1883,205000.0
1884,214500.0
1885,260000.0
1886,301500.0
1887,206300.0
1888,271000.0
1889,167500.0
1890,133700.0
1891,143000.0
1892,100000.0
1893,140000.0
1894,125000.0
1895,147500.0
1896,127000.0
1897,119000.0
1898,116900.0
1899,142000.0
1900,149000.0
1901,163500.0
1902,145900.0
1903,215000.0
1904,138000.0
1905,181900.0
1906,157500.0
1907,197000.0
1908,118000.0
1909,145000.0
1910,130000.0
1911,191000.0
1912,268000.0
1913,151400.0
1914,55993.0
1915,392500.0
1916,81000.0
1917,254900.0
1918,138500.0
1919,167500.0
1920,153500.0
1921,395192.0
1922,315500.0
1923,200000.0
1924,225000.0
1925,225000.0
1926,381000.0
1927,139000.0
1928,157000.0
1929,124900.0
1930,136500.0
1931,135960.0
1932,143000.0
1933,178000.0
1934,178000.0
1935,174000.0
1936,189000.0
1937,181000.0
1938,173000.0
1939,245350.0
1940,189000.0
1941,177000.0
1942,187500.0
1943,189000.0
1944,315750.0
1945,377500.0
1946,156500.0
1947,318061.0
1948,159434.0
1949,241500.0
1950,179900.0
1951,265000.0
1952,235000.0
1953,174900.0
1954,197000.0
1955,137000.0
1956,267000.0
1957,158500.0
1958,310000.0
1959,140000.0
1960,122000.0
1961,119000.0
1962,92000.0
1963,106250.0
1964,112000.0
1965,153500.0
1966,157000.0
1967,293077.0
1968,386250.0
1969,378500.0
1970,426000.0
1971,424870.0
1972,345000.0
1973,276000.0
1974,325300.0
1975,466500.0
1976,274000.0
1977,350000.0
1978,345000.0
1979,318061.0
1980,190000.0
1981,328900.0
1982,245500.0
1983,222000.0
1984,157000.0
1985,206300.0
1986,206300.0
1987,181000.0
1988,178900.0
1989,195000.0
1990,219500.0
1991,224000.0
1992,214000.0
1993,174000.0
1994,244000.0
1995,185000.0
1996,258000.0
1997,314813.0
1998,345000.0
1999,250000.0
2000,290000.0
2001,274300.0
2002,236500.0
2003,252000.0
2004,269500.0
2005,230000.0
2006,229456.0
2007,249700.0
2008,208300.0
2009,193000.0
2010,192500.0
2011,145000.0
2012,179900.0
2013,185000.0
2014,193500.0
2015,196000.0
2016,200000.0
2017,201800.0
2018,125000.0
2019,135750.0
2020,121000.0
2021,107000.0
2022,175000.0
2023,142953.0
2024,216500.0
2025,333168.0
2026,184100.0
2027,158000.0
2028,146000.0
2029,172500.0
2030,277500.0
2031,262500.0
2032,277500.0
2033,274000.0
2034,161000.0
2035,200100.0
2036,174000.0
2037,174000.0
2038,315000.0
2039,202500.0
2040,403000.0
2041,272000.0
2042,205000.0
2043,171000.0
2044,168000.0
2045,224500.0
2046,136905.0
2047,150000.0
2048,136500.0
2049,129000.0
2050,179665.0
2051,109000.0
2052,129000.0
2053,145500.0
2054,84900.0
2055,164900.0
2056,141000.0
2057,128500.0
2058,228500.0
2059,142000.0
2060,165000.0
2061,178000.0
2062,140000.0
2063,118858.0
2064,139000.0
2065,123500.0
2066,169500.0
2067,134432.0
2068,137900.0
2069,86000.0
2070,109500.0
2071,100000.0
2072,129900.0
2073,147000.0
2074,175900.0
2075,147000.0
2076,112000.0
2077,150000.0
2078,129000.0
2079,133000.0
2080,115000.0
2081,127500.0
2082,134432.0
2083,143000.0
2084,110000.0
2085,131500.0
2086,122000.0
2087,122900.0
2088,107500.0
2089,81000.0
2090,132500.0
2091,118500.0
2092,133000.0
2093,129900.0
2094,139400.0
2095,143000.0
2096,81000.0
2097,90000.0
2098,145000.0
2099,64500.0
2100,110000.0
2101,125000.0
2102,140000.0
2103,108000.0
2104,130000.0
2105,135000.0
2106,80500.0
2107,239000.0
2108,116000.0
2109,109000.0
2110,135000.0
2111,157000.0
2112,136500.0
2113,120000.0
2114,117000.0
2115,159000.0
2116,118000.0
2117,143000.0
2118,124000.0
2119,109500.0
2120,112000.0
2121,89471.0
2122,105000.0
2123,90350.0
2124,168000.0
2125,130000.0
2126,149350.0
2127,140000.0
2128,130000.0
2129,107000.0
2130,140000.0
2131,140000.0
2132,112000.0
2133,119000.0
2134,120000.0
2135,105000.0
2136,87500.0
2137,109000.0
2138,137000.0
2139,155000.0
2140,144000.0
2141,145000.0
2142,137000.0
2143,144000.0
2144,124900.0
2145,141000.0
2146,160000.0
2147,160000.0
2148,131000.0
2149,144500.0
2150,228000.0
2151,135000.0
2152,172500.0
2153,160000.0
2154,118000.0
2155,139000.0
2156,231500.0
2157,234000.0
2158,238000.0
2159,219500.0
2160,174000.0
2161,252000.0
2162,465000.0
2163,320000.0
2164,262000.0
2165,181000.0
2166,147000.0
2167,206300.0
2168,207500.0
2169,196975.0
2170,222500.0
2171,154900.0
2172,134000.0
2173,169000.0
2174,230500.0
2175,315000.0
2176,315000.0
2177,255900.0
2178,228500.0
2179,142500.0
2180,206300.0
2181,187100.0
2182,227680.0
2183,190000.0
2184,134000.0
2185,137500.0
2186,144000.0
2187,154500.0
2188,155000.0
2189,218000.0
2190,90000.0
2191,93000.0
2192,100000.0
2193,100000.0
2194,104900.0
2195,113000.0
2196,107500.0
2197,112000.0
2198,157000.0
2199,172500.0
2200,137500.0
2201,139000.0
2202,184000.0
2203,151400.0
2204,180000.0
2205,110000.0
2206,137500.0
2207,225000.0
2208,226000.0
2209,190000.0
2210,127000.0
2211,115000.0
2212,117000.0
2213,102776.0
2214,140000.0
2215,93500.0
2216,142000.0
2217,82000.0
2218,95000.0
2219,68400.0
2220,68400.0
2221,392500.0
2222,275000.0
2223,276000.0
2224,222000.0
2225,139000.0
2226,184000.0
2227,194201.0
2228,282922.0
2229,233230.0
2230,167500.0
2231,224500.0
2232,181000.0
2233,176000.0
2234,246578.0
2235,207500.0
2236,268000.0
2237,354000.0
2238,206300.0
2239,107500.0
2240,153500.0
2241,155000.0
2242,139000.0
2243,140000.0
2244,92000.0
2245,94500.0
2246,148500.0
2247,117000.0
2248,127500.0
2249,129900.0
2250,138000.0
2251,130000.0
2252,175000.0
2253,160000.0
2254,178000.0
2255,189000.0
2256,180000.0
2257,192140.0
2258,178000.0
2259,180000.0
2260,157500.0
2261,188407.5
2262,189000.0
2263,335000.0
2264,426000.0
2265,169900.0
2266,277500.0
2267,328900.0
2268,377500.0
2269,158900.0
2270,180000.0
2271,244000.0
2272,200100.0
2273,171500.0
2274,174900.0
2275,167500.0
2276,179600.0
2277,180000.0
2278,149700.0
2279,129500.0
2280,123500.0
2281,181000.0
2282,181000.0
2283,106000.0
2284,116900.0
2285,153500.0
2286,127500.0
2287,337500.0
2288,257000.0
2289,415298.0
2290,426000.0
2291,309000.0
2292,385000.0
2293,465000.0
2294,403000.0
2295,426000.0
2296,267000.0
2297,325624.0
2298,320000.0
2299,385000.0
2300,325300.0
2301,279500.0
2302,230000.0
2303,240000.0
2304,248328.0
2305,181000.0
2306,181000.0
2307,181000.0
2308,209500.0
2309,277500.0
2310,232000.0
2311,190000.0
2312,176000.0
2313,176000.0
2314,179665.0
2315,174000.0
2316,190000.0
2317,178400.0
2318,175000.0
2319,174000.0
2320,179665.0
2321,246578.0
2322,176000.0
2323,184000.0
2324,170000.0
2325,219210.0
2326,171750.0
2327,214000.0
2328,222000.0
2329,185750.0
2330,181000.0
2331,348000.0
2332,410000.0
2333,315000.0
2334,265000.0
2335,258000.0
2336,339750.0
2337,207500.0
2338,272000.0
2339,230000.0
2340,385000.0
2341,220000.0
2342,239000.0
2343,220000.0
2344,239000.0
2345,239900.0
2346,228500.0
2347,200141.0
2348,227875.0
2349,164500.0
2350,275000.0
2351,263435.0
2352,249700.0
2353,228714.2857142857
2354,141000.0
2355,159895.0
2356,149900.0
2357,201000.0
2358,200000.0
2359,133000.0
2360,118500.0
2361,140000.0
2362,260000.0
2363,143500.0
2364,169900.0
2365,213500.0
2366,189000.0
2367,225000.0
2368,207000.0
2369,225000.0
2370,173000.0
2371,173000.0
2372,187750.0
2373,250000.0
2374,275000.0
2375,245500.0
2376,260400.0
2377,320000.0
2378,145000.0
2379,189000.0
2380,145000.0
2381,167000.0
2382,185750.0
2383,210000.0
2384,244000.0
2385,159500.0
2386,140000.0
2387,141000.0
2388,110000.0
2389,130000.0
2390,142000.0
2391,139000.0
2392,114500.0
2393,165000.0
2394,145000.0
2395,190000.0
2396,145000.0
2397,215000.0
2398,131500.0
2399,61000.0
2400,60000.0
2401,116000.0
2402,140000.0
2403,124000.0
2404,150000.0
2405,160000.0
2406,135750.0
2407,129000.0
2408,138887.0
2409,137000.0
2410,167000.0
2411,122000.0
2412,158500.0
2413,139000.0
2414,139000.0
2415,127000.0
2416,124000.0
2417,131000.0
2418,126500.0
2419,133000.0
2420,125000.0
2421,149000.0
2422,113000.0
2423,135000.0
2424,157500.0
2425,200000.0
2426,127500.0
2427,138887.0
2428,170000.0
2429,115000.0
2430,135000.0
2431,127500.0
2432,139000.0
2433,142000.0
2434,142000.0
2435,146000.0
2436,112000.0
2437,105500.0
2438,126000.0
2439,110000.0
2440,117000.0
2441,109500.0
2442,99500.0
2443,119000.0
2444,131000.0
2445,88000.0
2446,135000.0
2447,179900.0
2448,140000.0
2449,108000.0
2450,145000.0
2451,134900.0
2452,200000.0
2453,96500.0
2454,134432.0
2455,119000.0
2456,133000.0
2457,118500.0
2458,120000.0
2459,108000.0
2460,134900.0
2461,115000.0
2462,138500.0
2463,116000.0
2464,161000.0
2465,132000.0
2466,108000.0
2467,155000.0
2468,90000.0
2469,89500.0
2470,179900.0
2471,200000.0
2472,154300.0
2473,112000.0
2474,97500.0
2475,219500.0
2476,114504.0
2477,129000.0
2478,156500.0
2479,109008.0
2480,142000.0
2481,129000.0
2482,131500.0
2483,120000.0
2484,122000.0
2485,128500.0
2486,150900.0
2487,180000.0
2488,155000.0
2489,155000.0
2490,147000.0
2491,90000.0
2492,180000.0
2493,139900.0
2494,160000.0
2495,103600.0
2496,237500.0
2497,152000.0
2498,108000.0
2499,92000.0
2500,131500.0
2501,135000.0
2502,144500.0
2503,102000.0
2504,186664.51612903227
2505,225000.0
2506,253293.0
2507,301000.0
2508,252000.0
2509,221500.0
2510,230000.0
2511,185000.0
2512,219500.0
2513,225000.0
2514,233230.0
2515,147000.0
2516,167500.0
2517,141000.0
2518,145000.0
2519,230000.0
2520,213000.0
2521,197900.0
2522,221000.0
2523,133000.0
2524,133500.0
2525,145000.0
2526,134000.0
2527,127000.0
2528,129000.0
2529,130500.0
2530,115000.0
2531,244000.0
2532,235000.0
2533,204900.0
2534,232600.0
2535,289000.0
2536,237000.0
2537,227000.0
2538,181134.0
2539,185500.0
2540,176432.0
2541,179665.0
2542,172785.0
2543,133000.0
2544,123500.0
2545,134432.0
2546,145000.0
2547,132000.0
2548,160000.0
2549,156932.0
2550,184750.0
2551,145000.0
2552,125000.0
2553,91500.0
2554,107000.0
2555,117000.0
2556,97000.0
2557,109500.0
2558,165500.0
2559,136500.0
2560,135000.0
2561,146000.0
2562,139900.0
2563,145000.0
2564,170000.0
2565,137500.0
2566,144500.0
2567,133000.0
2568,184000.0
2569,185750.0
2570,124000.0
2571,177500.0
2572,179000.0
2573,225000.0
2574,277000.0
2575,125000.0
2576,135000.0
2577,153500.0
2578,87000.0
2579,81000.0
2580,135900.0
2581,124900.0
2582,119900.0
2583,235000.0
2584,171000.0
2585,185500.0
2586,215000.0
2587,204000.0
2588,147000.0
2589,149000.0
2590,220000.0
2591,225000.0
2592,221500.0
2593,264561.0
2594,178400.0
2595,202665.0
2596,315000.0
2597,185000.0
2598,268000.0
2599,318061.0
2600,168000.0
2601,140000.0
2602,85400.0
2603,91000.0
2604,88000.0
2605,85000.0
2606,148000.0
2607,179000.0
2608,207500.0
2609,166000.0
2610,115000.0
2611,149900.0
2612,154500.0
2613,132000.0
2614,130000.0
2615,147500.0
2616,140000.0
2617,170000.0
2618,180000.0
2619,201800.0
2620,180500.0
2621,181000.0
2622,188700.0
2623,250000.0
2624,277000.0
2625,302000.0
2626,165000.0
2627,180000.0
2628,437154.0
2629,556581.0
2630,335000.0
2631,438780.0
2632,412500.0
2633,319900.0
2634,378500.0
2635,163500.0
2636,192000.0
2637,179665.0
2638,258000.0
2639,182900.0
2640,155000.0
2641,108959.0
2642,182900.0
2643,110000.0
2644,135000.0
2645,107000.0
2646,90350.0
2647,103600.0
2648,143000.0
2649,146500.0
2650,145000.0
2651,152000.0
2652,437154.0
2653,256300.0
2654,248328.0
2655,374000.0
2656,325300.0
2657,325000.0
2658,275000.0
2659,290000.0
2660,310000.0
2661,320000.0
2662,337500.0
2663,275000.0
2664,277500.0
2665,318061.0
2666,283463.0
2667,170000.0
2668,179665.0
2669,177000.0
2670,285000.0
2671,179665.0
2672,182000.0
2673,213490.0
2674,208900.0
2675,174000.0
2676,189000.0
2677,193000.0
2678,260000.0
2679,280000.0
2680,275500.0
2681,412500.0
2682,317000.0
2683,555000.0
2684,310000.0
2685,336000.0
2686,263435.0
2687,328900.0
2688,227680.0
2689,212000.0
2690,451950.0
2691,189000.0
2692,142125.0
2693,185850.0
2694,141000.0
2695,195000.0
2696,184000.0
2697,190000.0
2698,200000.0
2699,179900.0
2700,172500.0
2701,158900.0
2702,118400.0
2703,135000.0
2704,143500.0
2705,127500.0
2706,123000.0
2707,124000.0
2708,135960.0
2709,111250.0
2710,129000.0
2711,274970.0
2712,350000.0
2713,181000.0
2714,155000.0
2715,171750.0
2716,160000.0
2717,183500.0
2718,232000.0
2719,157900.0
2720,167000.0
2721,145000.0
2722,164000.0
2723,147000.0
2724,129900.0
2725,139400.0
2726,147000.0
2727,171000.0
2728,168000.0
2729,156500.0
2730,145250.0
2731,120500.0
2732,122900.0
2733,157500.0
2734,145900.0
2735,140000.0
2736,143000.0
2737,124500.0
2738,134000.0
2739,166000.0
2740,140000.0
2741,148000.0
2742,155000.0
2743,145000.0
2744,153500.0
2745,140000.0
2746,137000.0
2747,157000.0
2748,129000.0
2749,133700.0
2750,137000.0
2751,133900.0
2752,225000.0
2753,150900.0
2754,200000.0
2755,135000.0
2756,100000.0
2757,81000.0
2758,90000.0
2759,154000.0
2760,129900.0
2761,154000.0
2762,149700.0
2763,180500.0
2764,172500.0
2765,260000.0
2766,140000.0
2767,92900.0
2768,130000.0
2769,135000.0
2770,155000.0
2771,117000.0
2772,124000.0
2773,145900.0
2774,137000.0
2775,134432.0
2776,134900.0
2777,141500.0
2778,132000.0
2779,125500.0
2780,106500.0
2781,89471.0
2782,90000.0
2783,104900.0
2784,123500.0
2785,139000.0
2786,81000.0
2787,120000.0
2788,82500.0
2789,167500.0
2790,93000.0
2791,115000.0
2792,73000.0
2793,180500.0
2794,105000.0
2795,114504.0
2796,87000.0
2797,181000.0
2798,108000.0
2799,120000.0
2800,79000.0
2801,108000.0
2802,134886.4
2803,143000.0
2804,139600.0
2805,98000.0
2806,85000.0
2807,153575.0
2808,147000.0
2809,134500.0
2810,137000.0
2811,155000.0
2812,145000.0
2813,155000.0
2814,150900.0
2815,99500.0
2816,241500.0
2817,145000.0
2818,130500.0
2819,165400.0
2820,149500.0
2821,113000.0
2822,200000.0
2823,243000.0
2824,180500.0
2825,155000.0
2826,135000.0
2827,140000.0
2828,215000.0
2829,187750.0
2830,230000.0
2831,185500.0
2832,218000.0
2833,283463.0
2834,219500.0
2835,216837.0
2836,195000.0
2837,165500.0
2838,145000.0
2839,181000.0
2840,189000.0
2841,205950.0
2842,225000.0
2843,149900.0
2844,160000.0
2845,120500.0
2846,213250.0
2847,197500.0
2848,220000.0
2849,210000.0
2850,281000.0
2851,239000.0
2852,230000.0
2853,250000.0
2854,141000.0
2855,202500.0
2856,212000.0
2857,190000.0
2858,202500.0
2859,133900.0
2860,127500.0
2861,140000.0
2862,200000.0
2863,130000.0
2864,260000.0
2865,144000.0
2866,130000.0
2867,91500.0
2868,110000.0
2869,118500.0
2870,150000.0
2871,105000.0
2872,61000.0
2873,108000.0
2874,137900.0
2875,118500.0
2876,159500.0
2877,140000.0
2878,164000.0
2879,140000.0
2880,107500.0
2881,140000.0
2882,163500.0
2883,173934.5
2884,179665.0
2885,184000.0
2886,224900.0
2887,98600.0
2888,127000.0
2889,55000.0
2890,82500.0
2891,130000.0
2892,55000.0
2893,97500.0
2894,55000.0
2895,318061.0
2896,275000.0
2897,200624.0
2898,145000.0
2899,227000.0
2900,160000.0
2901,190000.0
2902,181000.0
2903,325624.0
2904,367294.0
2905,115000.0
2906,206300.0
2907,115000.0
2908,131500.0
2909,145000.0
2910,86000.0
2911,85400.0
2912,149900.0
2913,88000.0
2914,84500.0
2915,85000.0
2916,86000.0
2917,158500.0
2918,118500.0
2919,228000.0
