Id,SalePrice
1461,125614.16
1462,157208.62
1463,171665.44
1464,180130.64
1465,192387.0
1466,181964.7
1467,172148.68
1468,176344.0
1469,186044.2
1470,127503.0
1471,209196.58
1472,96028.0
1473,100433.42
1474,150165.8
1475,127330.48
1476,358868.98
1477,255477.86
1478,302054.46
1479,284159.8
1480,454344.16
1481,309985.8
1482,204561.5
1483,182654.28
1484,172261.6
1485,173145.56
1486,201429.24
1487,313768.08
1488,224309.58
1489,209968.58
1490,218208.36
1491,189175.7
1492,101371.0
1493,180821.0
1494,306309.72
1495,290122.48
1496,240153.56
1497,187850.0
1498,155918.08
1499,153917.94
1500,154341.34
1501,169469.66
1502,157011.08
1503,290328.84
1504,227299.74
1505,217566.04
1506,180746.58
1507,230215.38
1508,187813.16
1509,158839.1
1510,147480.0
1511,157044.0
1512,162772.84
1513,147527.66
1514,161067.46
1515,195673.8
1516,162559.0
1517,152683.0
1518,136880.3
1519,225523.68
1520,138392.0
1521,145676.1
1522,168832.0
1523,118395.2
1524,125657.52
1525,128160.16
1526,127393.0
1527,111655.86
1528,124036.66
1529,147060.5
1530,167942.0
1531,132947.5
1532,106191.0
1533,149207.62
1534,112511.52
1535,148421.5
1536,121028.2
1537,92512.44
1538,170240.9
1539,220339.5
1540,122818.0
1541,143983.0
1542,141051.2
1543,198828.62
1544,85903.6
1545,105278.0
1546,126773.94
1547,142298.74
1548,129659.5
1549,120494.68
1550,140203.0
1551,121972.0
1552,142733.8
1553,150253.08
1554,115412.74
1555,170194.6
1556,97721.08
1557,128311.34
1558,97289.08
1559,120596.22
1560,150036.0
1561,164040.48
1562,129389.64
1563,125415.0
1564,159352.06
1565,153570.0
1566,220214.04
1567,89145.0
1568,217769.8
1569,143771.0
1570,141432.0
1571,132685.52
1572,143700.5
1573,231004.1
1574,135243.46
1575,220835.26
1576,218459.5
1577,205090.8
1578,144204.0
1579,139708.0
1580,188206.0
1581,139174.0
1582,126928.6
1583,340343.58
1584,248750.74
1585,139904.66666666666
1586,77332.04
1587,109116.6
1588,147472.1
1589,107438.52
1590,133544.0
1591,105992.0
1592,129146.36
1593,121520.2
1594,134177.9
1595,125858.48
1596,233535.8
1597,161939.06
1598,189452.48
1599,189213.0
1600,183608.3
1601,81856.44
1602,113589.42
1603,92976.78
1604,279518.16
1605,258889.5
1606,162991.68
1607,171653.42
1608,219156.76
1609,206396.26
1610,159294.66
1611,144873.24
1612,166104.2
1613,172410.48
1614,125208.86
1615,91263.0
1616,83562.0
1617,88585.42
1618,127588.0
1619,136235.0
1620,165768.72
1621,140316.48
1622,144617.66
1623,282451.2
1624,212205.0
1625,130931.58
1626,169121.6
1627,190460.6
1628,263217.26
1629,176436.8
1630,363255.12
1631,219311.12
1632,245126.32
1633,168650.88
1634,184384.44
1635,176738.58
1636,162361.18
1637,176969.0
1638,200238.0
1639,180781.48
1640,244677.76
1641,179922.96
1642,227916.92
1643,226647.6
1644,220070.24
1645,183946.0
1646,159401.0
1647,162627.1
1648,143843.0
1649,137315.0
1650,123995.0
1651,124505.32
1652,93762.0
1653,95446.0
1654,155206.0
1655,156162.02
1656,147345.8
1657,152812.0
1658,149616.6
1659,137470.0
1660,149854.42
1661,456839.82
1662,358795.34
1663,371118.06
1664,441245.82
1665,313408.46
1666,318834.84
1667,345338.04
1668,331587.78
1669,292661.24
1670,324961.2
1671,267029.38
1672,470036.34
1673,304139.1
1674,252845.04
1675,194147.98
1676,193600.28
1677,211658.96
1678,439506.84
1679,396856.58
1680,312095.18
1681,257728.34
1682,308656.8
1683,190590.13
1684,173567.7
1685,176172.76
1686,170218.08
1687,168982.78
1688,189817.3
1689,188007.2
1690,178024.0
1691,170303.66
1692,264019.6
1693,170848.28
1694,184022.0
1695,171677.2
1696,261725.22
1697,172336.1
1698,332509.56
1699,346708.14
1700,247541.06
1701,262124.46
1702,254603.92
1703,258645.52
1704,292728.9
1705,224782.36
1706,473342.82
1707,220070.7
1708,213872.86
1709,274796.54
1710,222364.24
1711,260975.34
1712,242231.32
1713,271584.48
1714,220111.1
1715,201805.0
1716,187281.76
1717,160270.6
1718,133176.94
1719,209553.5
1720,236066.24
1721,167683.6
1722,122447.8
1723,156132.0
1724,213560.74
1725,228811.12
1726,196186.2
1727,170037.06
1728,188139.28
1729,159700.6
1730,165054.34
1731,126268.0
1732,129998.0
1733,121199.2
1734,131400.0
1735,133799.0
1736,115893.98
1737,358862.72
1738,211460.66
1739,290592.06
1740,228530.84
1741,190507.54
1742,169926.32
1743,174694.0
1744,294861.64
1745,216982.26
1746,232757.36
1747,215082.3
1748,207327.58
1749,162936.0
1750,146386.0
1751,222463.56
1752,121382.0
1753,149503.68
1754,197751.8
1755,167732.38
1756,124169.72
1757,119516.98
1758,150900.02
1759,163298.0
1760,164578.58
1761,151676.0
1762,173321.96
1763,169973.0
1764,120233.32
1765,173352.1
1766,166419.0
1767,210258.0
1768,143490.0
1769,165845.0
1770,147852.64
1771,138391.5
1772,144393.66
1773,138766.0
1774,144228.9
1775,133333.52
1776,124698.94
1777,120882.0
1778,135954.5
1779,127881.64
1780,175333.52
1781,135286.52
1782,101012.66
1783,133387.64
1784,101473.0
1785,121729.28
1786,153489.0
1787,173164.0
1788,66946.44
1789,104724.0
1790,95345.44
1791,194881.58
1792,155288.0
1793,143845.86
1794,139626.6
1795,137065.0
1796,130723.0
1797,121773.66
1798,125898.52
1799,119615.66
1800,131110.0
1801,128694.98
1802,143180.0
1803,157552.74
1804,138158.6
1805,135855.0
1806,117223.58
1807,144470.0
1808,116642.0
1809,129778.24
1810,141718.0
1811,121850.08
1812,107028.08
1813,122838.0
1814,101499.8
1815,67081.1
1816,105058.66
1817,130047.0
1818,151710.0
1819,123472.84
1820,85086.0
1821,121260.0
1822,142495.0
1823,66200.44
1824,136114.0
1825,137304.0
1826,105524.42
1827,117631.12
1828,132144.0
1829,117335.6
1830,131633.08
1831,156882.0
1832,113730.92
1833,138076.08
1834,125560.66
1835,159474.7
1836,128358.0
1837,98679.66
1838,130139.08
1839,98059.8
1840,158327.92
1841,147531.18
1842,92563.0
1843,137871.42
1844,142056.2
1845,139208.0
1846,159337.0
1847,157385.0
1848,70316.3
1849,117864.0
1850,129055.1
1851,146870.08
1852,128013.1
1853,142461.6
1854,168328.0
1855,168837.9
1856,220811.2
1857,167193.06
1858,144641.1
1859,122271.14
1860,152215.54
1861,122603.98
1862,283520.76
1863,276357.74
1864,276357.74
1865,331948.82
1866,337647.0
1867,241093.68
1868,293886.26
1869,195797.9
1870,237896.74
1871,251043.68
1872,171999.24
1873,227400.8
1874,142387.0
1875,204799.46
1876,194259.8
1877,207891.72
1878,213580.62
1879,131964.0
1880,134558.26
1881,244431.72
1882,258217.8
1883,200307.7
1884,214583.0
1885,246817.72
1886,296916.52
1887,206870.18
1888,266334.04
1889,166952.38
1890,134862.1
1891,141369.0
1892,115307.1
1893,135893.5
1894,126959.26
1895,151391.0
1896,128424.74
1897,124714.66
1898,117312.0
1899,141758.24
1900,134638.04
1901,162612.64
1902,149460.0
1903,206351.58
1904,142168.6
1905,182577.64
1906,147890.0
1907,202228.0
1908,116842.7
1909,133187.66
1910,129184.0
1911,189989.64
1912,275282.14
1913,143861.76
1914,72992.26
1915,339402.26
1916,77045.52
1917,257186.02
1918,140498.16
1919,153514.48
1920,167942.48
1921,401874.24
1922,332563.88
1923,209145.06
1924,224177.48
1925,224052.8
1926,389215.52
1927,137842.0
1928,155916.0
1929,124878.86
1930,139951.0
1931,140981.14
1932,140357.96
1933,160940.3
1934,180572.0
1935,177214.64
1936,187613.5
1937,186156.0
1938,175207.64
1939,242952.9
1940,189629.8
1941,178976.64
1942,190766.5
1943,199948.48
1944,328714.2
1945,372748.46
1946,167005.54
1947,319342.42
1948,169469.96
1949,234984.78
1950,179932.5
1951,267592.18
1952,225525.18
1953,172751.74
1954,200169.0
1955,130170.0
1956,288027.2
1957,163537.18
1958,307393.52
1959,153735.16
1960,118528.66
1961,120686.16
1962,100638.0
1963,106280.0
1964,113772.08
1965,147666.8
1966,149255.02
1967,295127.24
1968,418512.86
1969,375689.64
1970,405655.5
1971,407829.4
1972,344477.46
1973,268451.22
1974,322488.54
1975,455492.02
1976,275918.48
1977,381428.24
1978,334401.4
1979,315484.96
1980,199753.74
1981,328998.48
1982,236268.8
1983,220565.2
1984,172332.0
1985,215149.5
1986,214458.48
1987,188763.08
1988,179800.2
1989,186244.3
1990,224306.5
1991,213072.5
1992,216387.64
1993,171831.28
1994,244758.48
1995,184834.8
1996,252197.3
1997,304494.38
1998,344567.4
1999,259846.38
2000,302992.72
2001,277296.0
2002,250018.64
2003,248661.2
2004,271172.3
2005,226662.42
2006,222464.78
2007,254065.26
2008,208398.84
2009,195235.7
2010,188633.7
2011,138654.44
2012,175483.86
2013,182553.0
2014,191220.0
2015,196016.42
2016,200959.8
2017,199997.84
2018,130081.16
2019,135034.6
2020,118535.0
2021,115608.0
2022,179554.6
2023,152510.84
2024,247349.58
2025,348299.16
2026,184741.7
2027,150417.9
2028,155139.0
2029,166720.66
2030,274528.7
2031,239358.88
2032,259597.06
2033,269506.48
2034,163114.64
2035,212572.62
2036,185797.0
2037,191028.56
2038,284397.88
2039,220916.16
2040,374358.56
2041,257131.5
2042,203604.0
2043,163843.7
2044,167551.0
2045,216328.86
2046,136473.5
2047,151433.0
2048,134713.0
2049,137317.9
2050,173792.7
2051,116595.16
2052,137780.6
2053,144568.5
2054,87375.6
2055,157824.06
2056,137583.5
2057,128292.42
2058,227508.0
2059,143030.18
2060,159687.0
2061,170660.6
2062,137448.0
2063,122790.68
2064,141421.0
2065,114916.64
2066,174603.12
2067,139818.64
2068,150161.4
2069,87661.76
2070,108674.52
2071,105103.42
2072,128708.0
2073,136721.0
2074,178647.46
2075,148077.0
2076,118850.62
2077,148455.0
2078,136272.0
2079,128347.68
2080,116978.02
2081,123324.0
2082,147799.94
2083,142184.0
2084,115017.16
2085,133157.7
2086,126101.0
2087,119091.5
2088,106528.48
2089,95503.6
2090,130673.42
2091,120770.16
2092,133222.42
2093,139501.0
2094,133416.32
2095,144449.94
2096,92206.6
2097,99447.0
2098,132927.16
2099,72139.88
2100,116743.0
2101,124485.9
2102,145012.34
2103,109510.52
2104,127091.68
2105,131428.82
2106,87552.22
2107,216768.32
2108,118184.16
2109,122429.16
2110,129741.16
2111,144881.0
2112,142756.5
2113,117699.2
2114,108710.5
2115,144973.0
2116,114044.36
2117,144903.68
2118,126386.16
2119,109963.32
2120,106650.0
2121,97829.6
2122,111019.58
2123,96783.32
2124,164667.5
2125,137222.0
2126,146119.8
2127,144683.0
2128,133822.0
2129,105483.86
2130,140779.4
2131,148568.0
2132,109095.5
2133,120250.28
2134,128024.4
2135,110569.42
2136,92372.08
2137,122569.5
2138,137873.0
2139,154382.2
2140,135167.0
2141,139750.52
2142,138197.7
2143,147219.24
2144,130987.54
2145,132748.0
2146,161081.0
2147,165325.0
2148,130067.54
2149,142915.0
2150,221067.54
2151,123566.02
2152,169439.0
2153,165151.0
2154,105758.0
2155,136540.64
2156,254024.58
2157,229435.26
2158,234188.92
2159,213513.6
2160,171530.48
2161,243604.78
2162,425101.88
2163,358927.24
2164,255413.02
2165,183276.0
2166,145254.0
2167,209287.16
2168,204153.0
2169,191922.56
2170,218670.58
2171,145509.72
2172,140488.2
2173,155575.28
2174,237380.98
2175,292620.66
2176,321945.92
2177,258093.6
2178,226244.1
2179,148648.66666666666
2180,210643.72
2181,194933.16
2182,223488.46
2183,192885.32
2184,138547.0
2185,133167.0
2186,142884.08
2187,149182.0
2188,151768.74
2189,206463.32
2190,91263.0
2191,96512.0
2192,94163.0
2193,101873.0
2194,105962.9
2195,119683.16
2196,115278.08
2197,116419.5
2198,162064.22
2199,166489.68
2200,137760.5
2201,129237.58
2202,186026.5
2203,159496.48
2204,175528.0
2205,121776.34
2206,135935.0
2207,205081.44
2208,234041.56
2209,192074.48
2210,119653.06
2211,116039.0
2212,112413.58
2213,101530.0
2214,155626.74
2215,105618.08
2216,147077.1
2217,84398.16
2218,92261.24
2219,84208.5
2220,88841.94
2221,341697.82
2222,277211.1
2223,284663.22
2224,214777.62
2225,144978.82
2226,191614.44
2227,205666.32
2228,287992.6
2229,233608.84
2230,157375.44
2231,223622.44
2232,185401.7
2233,182374.24
2234,242083.5
2235,225089.48
2236,269589.54
2237,379840.56
2238,207899.58
2239,115753.66
2240,162207.0
2241,158058.66
2242,133684.1
2243,133159.76
2244,96931.0
2245,95915.66
2246,147210.0
2247,104763.0
2248,126869.0
2249,123889.1
2250,137085.3
2251,129281.44
2252,172814.6
2253,165190.94
2254,176812.0
2255,188691.8
2256,181677.4
2257,205130.7
2258,173732.52
2259,179016.0
2260,170321.0
2261,185131.68
2262,205698.04
2263,341927.98
2264,413859.7
2265,174799.02
2266,274963.36
2267,364308.44
2268,368119.68
2269,159806.64
2270,183671.64
2271,231823.56
2272,197858.0
2273,167457.64
2274,174406.54
2275,165013.0
2276,183842.12
2277,181500.4
2278,146392.0
2279,126141.24
2280,120978.24
2281,182856.29
2282,191896.22
2283,97540.0
2284,110876.08
2285,149094.4
2286,129469.6
2287,341401.3
2288,272037.52
2289,363765.32
2290,399598.32
2291,331822.36
2292,400114.32
2293,442604.32
2294,362867.88
2295,426229.54
2296,270867.62
2297,323331.12
2298,330237.6
2299,363044.16
2300,322912.12
2301,281634.98
2302,234250.0
2303,241955.56
2304,253101.68
2305,193506.04
2306,193428.04
2307,191820.24
2308,219086.1
2309,275782.74
2310,234044.52
2311,200084.52
2312,174560.44
2313,177838.88
2314,182061.0
2315,173900.88
2316,195052.08
2317,186093.04
2318,177892.0
2319,176730.6
2320,181859.62
2321,243481.04
2322,176248.26
2323,173737.9
2324,167651.1
2325,216356.0
2326,167738.16
2327,216013.0
2328,221321.5
2329,184205.8
2330,179244.0
2331,338215.82
2332,384945.98
2333,311043.92
2334,268774.36
2335,256798.98
2336,322545.78
2337,198203.48
2338,272052.18
2339,230173.5
2340,387371.58
2341,223954.58
2342,233502.66
2343,221834.74
2344,238983.34
2345,243353.1
2346,212977.32
2347,195975.28
2348,227385.58
2349,163305.0
2350,275676.88
2351,254426.48
2352,254019.32
2353,246181.12
2354,123391.24
2355,152034.38
2356,150438.0
2357,201790.56
2358,203398.74
2359,120138.74
2360,124253.16
2361,135395.0
2362,264102.26
2363,136180.1
2364,156558.0
2365,222395.52
2366,192368.3
2367,229546.7
2368,203427.7
2369,229147.42
2370,167952.36
2371,171968.32
2372,186585.06
2373,265640.8
2374,277375.3
2375,232588.0
2376,275285.76
2377,324851.88
2378,145452.0
2379,198951.6
2380,147743.0
2381,162883.0
2382,191204.6
2383,213394.6
2384,244187.96
2385,157008.0
2386,142089.0
2387,141184.0
2388,118705.02
2389,127689.74
2390,141660.0
2391,137346.4
2392,116848.8
2393,163173.5
2394,145839.0
2395,198819.7
2396,147840.08
2397,199609.0
2398,130181.0
2399,66116.44
2400,66593.44
2401,120550.68
2402,138589.1
2403,136494.94
2404,152447.18
2405,158207.0
2406,137022.0
2407,126123.48
2408,140730.5
2409,140808.6
2410,161589.0
2411,124190.32
2412,146563.5
2413,140190.0
2414,135899.5
2415,131422.88
2416,126334.68
2417,131702.58
2418,127945.0
2419,133645.94
2420,124699.0
2421,148745.0
2422,116707.5
2423,131024.32
2424,143426.6
2425,201818.82
2426,137553.94
2427,140549.16
2428,168186.0
2429,115685.98
2430,129137.0
2431,126388.0
2432,137039.5
2433,143978.0
2434,146656.0
2435,152567.02
2436,110369.16
2437,110502.96
2438,125093.66
2439,120530.64
2440,124130.0
2441,108305.0
2442,109330.26
2443,124769.62
2444,128560.5
2445,90592.08
2446,132781.68
2447,203923.56
2448,147499.5
2449,105776.5
2450,146425.5
2451,129272.14
2452,206635.78
2453,103662.0
2454,125916.28
2455,115209.52
2456,130895.52
2457,118269.28
2458,116906.82
2459,113015.16
2460,135543.74
2461,114554.08
2462,131502.0
2463,119962.0
2464,164847.16
2465,134790.52
2466,121869.14
2467,149033.04
2468,98165.22
2469,100848.08
2470,170273.64
2471,206278.3
2472,177261.0
2473,121254.52
2474,118095.0
2475,212123.5
2476,112143.08
2477,131244.0
2478,165621.74
2479,126052.14
2480,146253.0
2481,136469.0
2482,134537.2
2483,119251.32
2484,125446.16
2485,126460.32
2486,151807.6
2487,190797.16
2488,143546.8
2489,150904.46
2490,148843.0
2491,93111.0
2492,185669.0
2493,142745.0
2494,159766.0
2495,112130.08
2496,222369.0
2497,140308.0
2498,118574.1
2499,102327.44
2500,142172.6
2501,135757.3
2502,141701.5
2503,111794.36
2504,189778.94
2505,219661.4
2506,255933.52
2507,338327.52
2508,256720.54
2509,217990.0
2510,231609.68
2511,188910.16
2512,216964.56
2513,220987.12
2514,240869.62
2515,149681.56
2516,165487.94
2517,138215.0
2518,149395.0
2519,226802.54
2520,211950.04
2521,191892.0
2522,220747.86
2523,131756.28
2524,143665.94
2525,144574.26
2526,141650.06
2527,122736.82
2528,128183.28
2529,127481.0
2530,121158.0
2531,248996.96
2532,225843.42
2533,203338.24
2534,238461.0
2535,284969.74
2536,224437.98
2537,220550.88
2538,180920.02
2539,184340.2
2540,182985.86
2541,178465.72
2542,166018.98
2543,130728.0
2544,133701.0
2545,135863.16
2546,146050.0
2547,138139.94
2548,160687.02
2549,160856.74
2550,413168.5
2551,145466.0
2552,127269.26
2553,97179.64
2554,117919.5
2555,120012.0
2556,115580.0
2557,117851.52
2558,160401.34
2559,140324.78
2560,130180.0
2561,131607.0
2562,134049.76
2563,143152.0
2564,170906.6
2565,132941.78
2566,142489.5
2567,130610.0
2568,183495.0
2569,191187.86
2570,117255.72
2571,190962.08
2572,167430.0
2573,217987.3
2574,286769.36
2575,123428.0
2576,132711.58
2577,138547.14
2578,91846.0
2579,88866.44
2580,132212.0
2581,136969.0
2582,121960.94
2583,278762.3
2584,157690.3
2585,198829.62
2586,211359.74
2587,196328.74
2588,140019.0
2589,140988.2
2590,214562.54
2591,215507.04
2592,235928.74
2593,256765.2
2594,180020.1
2595,203969.22
2596,329719.22
2597,197903.38
2598,274782.06
2599,310663.38
2600,190530.0
2601,139630.0
2602,89367.42
2603,94176.0
2604,90434.0
2605,89998.0
2606,145240.14
2607,176703.74
2608,193064.0
2609,160355.8
2610,107382.66
2611,145093.0
2612,153014.74
2613,129908.0
2614,122624.98
2615,142886.16
2616,141526.0
2617,189540.42
2618,189188.0
2619,201537.12
2620,184528.64
2621,184714.0
2622,189167.8
2623,247562.46
2624,289811.66
2625,303969.58
2626,166490.54
2627,178633.0
2628,409393.58
2629,479545.12
2630,341239.62
2631,424076.9
2632,392311.92
2633,305015.22
2634,381416.76
2635,153380.2
2636,189810.0
2637,178950.8
2638,254604.3
2639,185268.0
2640,155587.1
2641,114246.0
2642,209563.64
2643,109837.22
2644,136174.0
2645,100222.0
2646,93502.0
2647,100044.0
2648,137206.66
2649,139828.68
2650,144571.6
2651,147806.8
2652,393687.28
2653,250309.08
2654,264399.46
2655,362854.66
2656,318466.0
2657,313235.9
2658,283682.78
2659,299694.28
2660,337053.72
2661,325563.2
2662,335947.08
2663,265722.56
2664,271125.64
2665,320893.8
2666,288155.54
2667,170895.94
2668,175761.38
2669,174623.96
2670,283695.88
2671,176761.28
2672,184268.32
2673,211466.22
2674,212056.92
2675,167954.9
2676,183984.2
2677,199767.7
2678,264827.48
2679,273733.08
2680,278313.26
2681,377726.18
2682,323353.62
2683,458332.1
2684,317187.2
2685,338266.2
2686,261937.84
2687,315975.78
2688,232688.22
2689,214170.7
2690,442866.94
2691,192656.24
2692,137758.4
2693,191995.96
2694,127672.4
2695,194031.84
2696,185613.2
2697,201030.8
2698,202219.06
2699,175449.9
2700,169931.98
2701,159711.2
2702,123071.0
2703,137483.78
2704,142095.0
2705,128758.16
2706,119790.0
2707,123577.98
2708,134297.0
2709,99525.66
2710,127307.48
2711,264093.46
2712,357944.66
2713,169312.44
2714,151239.28
2715,168950.32
2716,155298.78
2717,187025.0
2718,229163.52
2719,154726.0
2720,162313.4
2721,138966.0
2722,158778.38
2723,143518.0
2724,128484.0
2725,136258.0
2726,145993.5
2727,168516.16
2728,164766.0
2729,150803.02
2730,143691.0
2731,124298.0
2732,119902.58
2733,157408.0
2734,150133.0
2735,135823.0
2736,145666.2
2737,122467.82
2738,137213.8
2739,156509.64
2740,138742.02
2741,152448.8
2742,152936.4
2743,151207.0
2744,144390.0
2745,137338.0
2746,131642.0
2747,156381.88
2748,132943.42
2749,133313.42
2750,132383.0
2751,128822.0
2752,239313.7
2753,151735.0
2754,224884.06
2755,128669.5
2756,101667.22
2757,84916.22
2758,98469.0
2759,149467.68
2760,142002.92
2761,148072.42
2762,141094.5
2763,182618.6
2764,174377.6
2765,245470.0
2766,134892.16
2767,92676.0
2768,130865.16
2769,141560.28
2770,146058.12
2771,119144.82
2772,116093.78
2773,155054.0
2774,134706.02
2775,127200.08
2776,138759.06
2777,145741.8
2778,118244.8
2779,139848.0
2780,111884.7
2781,105871.84
2782,102739.0
2783,98676.6
2784,125814.0
2785,139246.16
2786,85386.44
2787,115433.42
2788,92781.82
2789,176124.7
2790,98010.16
2791,114810.16
2792,84538.0
2793,162405.1
2794,107762.8
2795,119326.08
2796,98255.6
2797,188529.6
2798,109439.16
2799,121918.0
2800,81240.22
2801,114126.0
2802,139517.5
2803,164143.38
2804,137929.44
2805,105490.0
2806,101119.16
2807,155912.0
2808,145958.64
2809,133581.2
2810,132502.0
2811,160446.0
2812,144778.34
2813,181526.5
2814,170277.68
2815,99879.0
2816,232518.2
2817,138313.64
2818,131830.0
2819,165707.84
2820,142044.0
2821,115987.08
2822,194440.86
2823,257214.4
2824,181863.0
2825,152820.8
2826,134484.5
2827,137288.0
2828,235395.4
2829,180546.64
2830,224614.36
2831,191904.22
2832,239200.86
2833,307958.96
2834,212998.36
2835,219887.02
2836,193147.1
2837,168212.0
2838,151084.0
2839,182000.4
2840,194185.8
2841,203105.0
2842,214509.56
2843,145920.24
2844,150075.52
2845,125023.52
2846,213072.2
2847,199946.0
2848,224370.78
2849,212716.0
2850,280735.72
2851,240710.8
2852,230831.4
2853,235455.0
2854,140540.0
2855,200727.02
2856,212954.08
2857,190468.38
2858,201104.22
2859,141390.0
2860,123083.08
2861,143413.68
2862,193204.8
2863,118644.0
2864,264179.32
2865,144100.0
2866,133717.0
2867,96894.08
2868,120869.38
2869,122353.0
2870,150973.28
2871,105879.22
2872,67561.66
2873,112123.76
2874,132132.74
2875,118864.08
2876,157232.42
2877,137826.78
2878,153619.98
2879,139390.64
2880,112047.0
2881,144467.74
2882,156421.0
2883,181233.0
2884,182834.04
2885,178445.48
2886,198246.0
2887,104959.38
2888,124908.0
2889,64320.22
2890,92515.2
2891,138991.16
2892,69775.88
2893,112993.68
2894,72268.08
2895,317321.58
2896,293884.48
2897,202591.48
2898,146352.32
2899,223513.4
2900,154776.0
2901,189854.96
2902,190984.7
2903,368837.92
2904,352401.08
2905,120872.86
2906,208851.76
2907,113968.0
2908,129941.0
2909,146625.26
2910,85990.0
2911,89929.42
2912,153794.1
2913,92734.0
2914,87042.0
2915,87562.0
2916,92705.42
2917,166289.0
2918,111351.5
2919,238899.44
